{
  "application_name": "PageMe",
  "application_welcome_message": null,
  "default_homeserver": "matrix.org",
  "web_base_url": "https://fluffychat.im/web",
  "privacy_url": "https://fluffychat.im/en/privacy.html",
  "render_html": false,
  "hide_redacted_events": false,
  "hide_unknown_events": false
}