<?xml version="1.0" encoding="utf-8"?>
<!-- Generator: Adobe Illustrator 25.3.1, SVG Export Plug-In . SVG Version: 6.00 Build 0)  -->
<svg version="1.1" id="Layer_1" xmlns="http://www.w3.org/2000/svg" xmlns:xlink="http://www.w3.org/1999/xlink" x="0px" y="0px"
	 viewBox="0 0 64.8 75.9" style="enable-background:new 0 0 64.8 75.9;" xml:space="preserve">
<g>
	<g>
		<path class="st0" d="M32.4,75.8l-0.8-0.5c-4.8-2.8-12-7.2-18.5-12.6c-4-3.3-7.4-6.8-9.8-10.1C0.8,49,0,44.1,0,42.2V12.1L32.4,0
			l32.4,12.1v30.1c0,1.9-0.8,6.8-3.3,10.4c-2,3-5.2,6.2-9.8,10.1c-6.8,5.8-14.6,10.4-18.5,12.7L32.4,75.8z M3.2,14.3v27.9
			c0,1.3,0.6,5.6,2.7,8.6c2.2,3.1,5.4,6.4,9.2,9.5c6,5,12.6,9.1,17.3,11.9c4.1-2.3,11.1-6.6,17.3-11.9c4.3-3.7,7.4-6.8,9.2-9.5
			c2.1-3,2.7-7.4,2.7-8.6V14.3L32.4,3.4L3.2,14.3z"/>
	</g>
	<g>
		<path class="st0" d="M42.4,53.5H22.5c-2.8,0-5.1-2.3-5.1-5.1V32.1c0-2.8,2.3-5.1,5.1-5.1h19.9c2.8,0,5.1,2.3,5.1,5.1v16.3
			C47.5,51.2,45.2,53.5,42.4,53.5z M22.5,30.2c-1.1,0-1.9,0.8-1.9,1.9v16.3c0,1.1,0.8,1.9,1.9,1.9h19.9c1.1,0,1.9-0.8,1.9-1.9V32.1
			c0-1.1-0.8-1.9-1.9-1.9H22.5z"/>
	</g>
	<g>
		<path class="st0" d="M44.2,28H41v-3.3c0-4.8-3.9-8.6-8.6-8.6s-8.6,3.9-8.6,8.6V28h-3.1v-3.3c0-6.5,5.3-11.8,11.8-11.8
			c6.5,0,11.8,5.3,11.8,11.8V28z"/>
	</g>
</g>
</svg>
